waveforms/constants.s.vcd
$date
2022-10-26T18:07+0000
$end
$version
0.2
$end
$comment

$end
$timescale 1ns  $end
$scope module Tile $end
 $var wire 1 = io_regsWriteEnable $end
 $var wire 32 > io_regsReadData $end
 $var wire 32 O io_IMEMAddress $end
 $var wire 1 i io_regsDeviceWriteEnable $end
 $var wire 32 "; io_DMEMAddress $end
 $var wire 32 "i io_DMEMWriteData $end
 $var wire 1 "r CPU $end
 $var wire 32 "} io_regsDeviceWriteData $end
 $var wire 5 #& io_regsDeviceWriteAddress $end
 $var wire 1 #8 clock $end
 $var wire 32 #? io_currentPC $end
 $var wire 5 #B io_regsAddress $end
 $var wire 1 #] io_DMEMWriteEnable $end
 $var wire 32 #^ io_memDeviceWriteAddress $end
 $var wire 32 #{ io_IMEMWriteData $end
 $var wire 32 $# io_memDeviceWriteData $end
 $var wire 32 $E io_DMEMReadData $end
 $var wire 1 $O reset $end
 $var wire 1 $[ io_setup $end
 $var wire 1 $j io_memDeviceWriteEnable $end
 $var wire 32 $| io_regsWriteData $end
  $scope module CPU.MEMBarrier $end
  $upscope $end
  $scope module CPU.EX $end
  $upscope $end
  $scope module CPU.EXBarrier $end
  $upscope $end
  $scope module CPU.MEM $end
  $upscope $end
  $scope module CPU.IDBarrier $end
  $upscope $end
  $scope module CPU.ID $end
  $upscope $end
  $scope module CPU.ID.registers $end
  $upscope $end
  $scope module CPU.IFBarrier $end
  $upscope $end
  $scope module CPU.IF $end
  $upscope $end
  $scope module CPU.IF.IMEM $end
  $upscope $end
  $scope module CPU.MEM.DMEM $end
  $upscope $end
  $scope module CPU.ID.Decoder $end
  $upscope $end
  $scope module CPU.EX.alu $end
  $upscope $end
  $scope module CPU $end
   $var wire 1 ' IDBarrier $end
   $var wire 32 ; testHarness_setupSignals_IMEMsignals_address $end
   $var wire 32 @ testHarness_setupSignals_IMEMsignals_instruction $end
   $var wire 1 L testHarness_regUpdates_writeEnable $end
   $var wire 1 m ID $end
   $var wire 1 "+ testHarness_memUpdates_writeEnable $end
   $var wire 32 "C testHarness_regUpdates_writeData $end
   $var wire 5 "F testHarness_regUpdates_writeAddress $end
   $var wire 5 "H testHarness_setupSignals_registerSignals_readAddress $end
   $var wire 32 "L testHarness_testReadouts_registerRead $end
   $var wire 32 "U testHarness_currentPC $end
   $var wire 1 "Z IF $end
   $var wire 32 "j testHarness_memUpdates_writeAddress $end
   $var wire 1 "w IFBarrier $end
   $var wire 1 "x testHarness_setupSignals_DMEMsignals_setup $end
   $var wire 32 #+ testHarness_testReadouts_DMEMread $end
   $var wire 32 #/ testHarness_setupSignals_DMEMsignals_dataIn $end
   $var wire 1 #5 testHarness_setupSignals_IMEMsignals_setup $end
   $var wire 1 #X clock $end
   $var wire 32 #[ testHarness_setupSignals_DMEMsignals_dataAddress $end
   $var wire 1 #f testHarness_setupSignals_registerSignals_setup $end
   $var wire 1 #l MEM $end
   $var wire 1 $( testHarness_setupSignals_registerSignals_writeEnable $end
   $var wire 1 $* EXBarrier $end
   $var wire 1 $D EX $end
   $var wire 32 $i testHarness_memUpdates_writeData $end
   $var wire 32 $s testHarness_setupSignals_registerSignals_writeData $end
   $var wire 1 $z MEMBarrier $end
   $var wire 1 ${ reset $end
   $var wire 1 %! testHarness_setupSignals_DMEMsignals_writeEnable $end
    $scope module ID $end
     $var wire 1 ! testHarness_registerSetup_writeEnable $end
     $var wire 4 $ io_ALUopOut $end
     $var wire 32 % io_PCIn $end
     $var wire 32 3 io_PCOut $end
     $var wire 32 G io_writeData $end
     $var wire 32 Z io_instructionOut_instruction $end
     $var wire 32 l testHarness_registerPeek $end
     $var wire 1 "* testHarness_testUpdates_writeEnable $end
     $var wire 32 ". io_instruction_instruction $end
     $var wire 1 "4 io_controlSignalsOut_memRead $end
     $var wire 32 "6 testHarness_registerSetup_writeData $end
     $var wire 1 "D io_writeEnable $end
     $var wire 5 "G testHarness_testUpdates_writeAddress $end
     $var wire 1 "W io_controlSignalsOut_regWrite $end
     $var wire 32 "X io_readData1Out $end
     $var wire 1 "o io_op2SelectOut $end
     $var wire 1 "t io_controlSignalsOut_jump $end
     $var wire 5 #@ testHarness_registerSetup_readAddress $end
     $var wire 1 #L registers $end
     $var wire 1 #_ io_controlSignalsOut_branch $end
     $var wire 1 #} io_controlSignalsOut_memWrite $end
     $var wire 1 $/ Decoder $end
     $var wire 32 $: io_readData2Out $end
     $var wire 32 $> io_immOut $end
     $var wire 32 $J io_writeAddress $end
     $var wire 1 $_ testHarness_registerSetup_setup $end
     $var wire 3 $b io_branchTypeOut $end
     $var wire 32 $g testHarness_testUpdates_writeData $end
     $var wire 1 $n clock $end
      $scope module registers $end
       $var wire 1 * testHarness_testUpdates_writeEnable $end
       $var wire 1 - testHarness_setup_setup $end
       $var wire 32 ? testHarness_testUpdates_writeData $end
       $var wire 5 B readAddress1 $end
       $var wire 1 E clock $end
       $var wire 32 I io_readData1 $end
       $var wire 32 M registerFile $end
       $var wire 1 ] testHarness_setup_writeEnable $end
       $var wire 1 x writeEnable $end
       $var wire 5 "% io_readAddress1 $end
       $var wire 5 "J testHarness_testUpdates_writeAddress $end
       $var wire 1 "] io_writeEnable $end
       $var wire 32 #% testHarness_setup_writeData $end
       $var wire 32 #: io_writeData $end
       $var wire 5 #e testHarness_setup_readAddress $end
       $var wire 32 #p io_readData2 $end
       $var wire 5 #s writeAddress $end
       $var wire 5 $5 io_writeAddress $end
       $var wire 5 $6 io_readAddress2 $end
        $scope module registerFile $end
          $scope module _T_33 $end
           $var wire 1 & en $end
           $var wire 1 / pipeline_valid_0 $end
           $var wire 1 D clk $end
           $var wire 5 "R pipeline_addr_0 $end
           $var wire 1 "[ mask $end
           $var wire 1 #- valid $end
           $var wire 5 #` addr $end
           $var wire 32 $. pipeline_data_0 $end
           $var wire 32 $k data $end
          $upscope $end
          $scope module _T_41 $end
           $var wire 32 z data $end
           $var wire 1 "P en $end
           $var wire 1 #J clk $end
           $var wire 5 $X addr $end
          $upscope $end
          $scope module _T_38 $end
           $var wire 1 ", clk $end
           $var wire 1 #) en $end
           $var wire 5 #> addr $end
           $var wire 32 $R data $end
          $upscope $end
        $upscope $end
      $upscope $end
      $scope module Decoder $end
       $var wire 1 < io_controlSignals_memWrite $end
       $var wire 1 F io_controlSignals_memRead $end
       $var wire 1 "M io_op2Select $end
       $var wire 1 #H io_controlSignals_regWrite $end
       $var wire 4 #r io_ALUop $end
       $var wire 32 #y io_instruction_instruction $end
       $var wire 1 $M decodedControlSignals_1 $end
       $var wire 1 $S io_controlSignals_jump $end
       $var wire 3 $r io_branchType $end
       $var wire 1 $w io_controlSignals_branch $end
       $var wire 3 $x io_immType $end
      $upscope $end
    $upscope $end
    $scope module IDBarrier $end
     $var wire 32 " immReg $end
     $var wire 1 . io_controlSignalsOut_jump $end
     $var wire 1 0 op2SelectReg $end
     $var wire 32 1 io_imm $end
     $var wire 32 4 io_PCIn $end
     $var wire 3 6 io_branchType $end
     $var wire 3 7 branchTypeReg $end
     $var wire 32 S io_readData2 $end
     $var wire 1 X io_controlSignalsOut_memRead $end
     $var wire 1 \ io_controlSignals_memWrite $end
     $var wire 32 p io_instructionOut_instruction $end
     $var wire 32 v readData2Reg $end
     $var wire 32 "& io_readData1Out $end
     $var wire 1 "@ reset $end
     $var wire 1 "K io_controlSignalsOut_regWrite $end
     $var wire 1 "c io_op2SelectOut $end
     $var wire 1 "d controlSignalsReg_memRead $end
     $var wire 1 "e controlSignalsReg_regWrite $end
     $var wire 32 "z instruction $end
     $var wire 4 "| ALUopReg $end
     $var wire 32 "~ io_readData1 $end
     $var wire 32 #! io_instructionIn_instruction $end
     $var wire 3 #2 io_branchTypeOut $end
     $var wire 1 #9 io_controlSignals_memRead $end
     $var wire 1 #D io_controlSignalsOut_memWrite $end
     $var wire 1 #P controlSignalsReg_memWrite $end
     $var wire 32 #g readData1Reg $end
     $var wire 32 #h PC $end
     $var wire 32 #n io_immOut $end
     $var wire 1 #v controlSignalsReg_jump $end
     $var wire 4 #| io_ALUopIn $end
     $var wire 32 $$ io_readData2Out $end
     $var wire 1 $+ io_controlSignals_jump $end
     $var wire 1 $3 io_controlSignalsOut_branch $end
     $var wire 1 $4 controlSignalsReg_branch $end
     $var wire 32 $H io_PCOut $end
     $var wire 1 $K io_controlSignals_branch $end
     $var wire 1 $L io_controlSignals_regWrite $end
     $var wire 4 $} io_ALUopOut $end
     $var wire 1 $~ io_op2Select $end
     $var wire 1 %# clock $end
    $upscope $end
    $scope module MEM $end
     $var wire 1 8 io_controlSignals_memRead $end
     $var wire 32 K io_dataIn $end
     $var wire 1 a DMEM $end
     $var wire 32 j testHarness_testUpdates_writeAddress $end
     $var wire 1 y io_controlSignalsOut_branch $end
     $var wire 1 | io_controlSignals_jump $end
     $var wire 32 "' io_readData2In $end
     $var wire 32 "9 io_instructionIn_instruction $end
     $var wire 32 "< io_instructionOut_instruction $end
     $var wire 1 "B io_controlSignals_branch $end
     $var wire 32 "Y testHarness_DMEMsetup_dataAddress $end
     $var wire 1 "k io_controlSignals_regWrite $end
     $var wire 1 "m io_controlSignalsOut_jump $end
     $var wire 32 "u io_dataOut $end
     $var wire 1 #U io_controlSignalsOut_regWrite $end
     $var wire 32 #V io_memDataOut $end
     $var wire 1 #Y testHarness_testUpdates_writeEnable $end
     $var wire 1 #j testHarness_DMEMsetup_writeEnable $end
     $var wire 1 #t io_controlSignals_memWrite $end
     $var wire 32 #x testHarness_DMEMpeek $end
     $var wire 1 $I testHarness_DMEMsetup_setup $end
     $var wire 32 $V testHarness_testUpdates_writeData $end
     $var wire 1 $\ io_controlSignalsOut_memRead $end
     $var wire 1 $c io_controlSignalsOut_memWrite $end
     $var wire 1 $e clock $end
     $var wire 32 $u testHarness_DMEMsetup_dataIn $end
      $scope module DMEM $end
       $var wire 32 , testHarness_testUpdates_writeData $end
       $var wire 1 9 _GEN_6 $end
       $var wire 12 C data__T_24_addr_pipe_0 $end
       $var wire 1 V testHarness_testUpdates_writeEnable $end
       $var wire 32 e testHarness_setup_dataAddress $end
       $var wire 12 f io_dataAddress $end
       $var wire 32 n testHarness_testUpdates_writeAddress $end
       $var wire 32 "/ addressSource $end
       $var wire 32 "? data $end
       $var wire 1 "y io_writeEnable $end
       $var wire 1 #Z testHarness_setup_writeEnable $end
       $var wire 1 #\ testHarness_setup_setup $end
       $var wire 1 $2 clock $end
       $var wire 32 $N testHarness_setup_dataIn $end
       $var wire 32 $] io_dataIn $end
       $var wire 32 $l io_dataOut $end
        $scope module data $end
          $scope module _T_26 $end
           $var wire 1 # clk $end
           $var wire 12 ~ addr $end
           $var wire 32 "1 pipeline_data_0 $end
           $var wire 1 "p pipeline_valid_0 $end
           $var wire 32 #* data $end
           $var wire 1 $- en $end
           $var wire 12 $< pipeline_addr_0 $end
           $var wire 1 $T valid $end
           $var wire 1 $o mask $end
          $upscope $end
          $scope module _T_24 $end
           $var wire 32 U data $end
           $var wire 1 #; clk $end
           $var wire 1 $0 en $end
           $var wire 12 $B addr $end
          $upscope $end
        $upscope $end
      $upscope $end
    $upscope $end
    $scope module IF $end
     $var wire 1 ( testHarness_IMEMsetup_setup $end
     $var wire 32 2 io_PCNew $end
     $var wire 1 c IMEM $end
     $var wire 32 q io_PC $end
     $var wire 32 s testHarness_IMEMsetup_instruction $end
     $var wire 32 "N PC $end
     $var wire 1 "\ io_controlSignals_jump $end
     $var wire 1 "a clock $end
     $var wire 32 "h testHarness_PC $end
     $var wire 1 #k io_controlSignals_branch $end
     $var wire 1 #q reset $end
     $var wire 32 $% _GEN_1 $end
     $var wire 32 $& testHarness_IMEMsetup_address $end
     $var wire 32 $Y io_instruction_instruction $end
     $var wire 32 $y _GEN_0 $end
      $scope module IMEM $end
       $var wire 32 N testHarness_setupSignals_instruction $end
       $var wire 12 ` instructions__T_20_addr_pipe_0 $end
       $var wire 1 "A clock $end
       $var wire 32 #' testHarness_setupSignals_address $end
       $var wire 1 #6 _GEN_4 $end
       $var wire 32 #A io_instruction $end
       $var wire 1 #d testHarness_setupSignals_setup $end
       $var wire 32 $= addressSource $end
       $var wire 32 $U testHarness_requestedAddress $end
       $var wire 32 $m io_instructionAddress $end
       $var wire 32 $t instructions $end
        $scope module instructions $end
          $scope module _T_18 $end
           $var wire 1 5 valid $end
           $var wire 1 J mask $end
           $var wire 1 { pipeline_valid_0 $end
           $var wire 12 "S addr $end
           $var wire 1 "V clk $end
           $var wire 32 #I data $end
           $var wire 12 #M pipeline_addr_0 $end
           $var wire 32 $Z pipeline_data_0 $end
           $var wire 1 $q en $end
          $upscope $end
          $scope module _T_20 $end
           $var wire 1 "= en $end
           $var wire 12 "{ addr $end
           $var wire 1 #F clk $end
           $var wire 32 $! data $end
          $upscope $end
        $upscope $end
      $upscope $end
    $upscope $end
    $scope module EXBarrier $end
     $var wire 32 ) io_instructionIn_instruction $end
     $var wire 32 A io_PCIn $end
     $var wire 32 R io_readData2In $end
     $var wire 1 W io_controlSignalsOut_memWrite $end
     $var wire 32 _ io_PCOut $end
     $var wire 1 g clock $end
     $var wire 1 "$ controlSignalsReg_memWrite $end
     $var wire 1 "> io_controlSignalsOut_jump $end
     $var wire 32 "E io_dataOut $end
     $var wire 1 "Q controlSignalsReg_branch $end
     $var wire 32 "l io_readData2Out $end
     $var wire 1 "q io_controlSignals_branch $end
     $var wire 1 "v io_controlSignals_regWrite $end
     $var wire 32 ## io_dataIn $end
     $var wire 32 #. data $end
     $var wire 32 #4 io_instructionOut_instruction $end
     $var wire 1 #G controlSignalsReg_memRead $end
     $var wire 1 #K io_controlSignalsOut_memRead $end
     $var wire 1 #S reset $end
     $var wire 1 #c io_controlSignalsOut_branch $end
     $var wire 1 #w io_controlSignals_memWrite $end
     $var wire 1 $) controlSignalsReg_jump $end
     $var wire 1 $, controlSignalsReg_regWrite $end
     $var wire 32 $7 readData2Reg $end
     $var wire 32 $; instruction $end
     $var wire 1 $@ io_controlSignals_memRead $end
     $var wire 1 $F io_controlSignals_jump $end
     $var wire 1 $W io_controlSignalsOut_regWrite $end
     $var wire 32 $f PC $end
    $upscope $end
    $scope module MEMBarrier $end
     $var wire 1 + controlSignalsReg_jump $end
     $var wire 1 : io_controlSignals_jump $end
     $var wire 32 P data $end
     $var wire 32 Q io_dataOut $end
     $var wire 1 T controlSignalsReg_branch $end
     $var wire 1 Y io_controlSignals_memWrite $end
     $var wire 1 [ io_controlSignalsOut_regWrite $end
     $var wire 1 k reset $end
     $var wire 1 "0 io_controlSignals_branch $end
     $var wire 32 "8 io_dataIn $end
     $var wire 1 "b controlSignalsReg_regWrite $end
     $var wire 1 "n controlSignalsReg_memRead $end
     $var wire 1 #( io_controlSignalsOut_memRead $end
     $var wire 1 #Q controlSignalsReg_memWrite $end
     $var wire 1 #a io_controlSignals_memRead $end
     $var wire 32 #b instruction $end
     $var wire 32 #~ io_instructionOut_instruction $end
     $var wire 1 $C clock $end
     $var wire 1 $^ io_controlSignals_regWrite $end
     $var wire 32 $a io_instructionIn_instruction $end
    $upscope $end
    $scope module EX $end
     $var wire 32 ^ _GEN_3 $end
     $var wire 32 b _GEN_25 $end
     $var wire 32 d io_readData2Out $end
     $var wire 32 h _GEN_31 $end
     $var wire 32 o io_PCOut $end
     $var wire 32 r io_instructionOut_instruction $end
     $var wire 1 t io_op2Select $end
     $var wire 32 u _GEN_13 $end
     $var wire 32 w _GEN_6 $end
     $var wire 32 } _GEN_28 $end
     $var wire 4 "! io_ALUop $end
     $var wire 1 "" io_controlSignalsOut_branch $end
     $var wire 32 "# _GEN_34 $end
     $var wire 32 "( _GEN_9 $end
     $var wire 32 ") _GEN_16 $end
     $var wire 1 "- io_controlSignals_memRead $end
     $var wire 32 "2 _GEN_22 $end
     $var wire 32 "3 _GEN_0 $end
     $var wire 32 "5 io_instructionIn_instruction $end
     $var wire 1 "7 io_controlSignals_jump $end
     $var wire 32 ": io_dataOut $end
     $var wire 32 "I _GEN_19 $end
     $var wire 32 "O _GEN_10 $end
     $var wire 32 "^ io_PCIn $end
     $var wire 1 "_ io_controlSignalsOut_regWrite $end
     $var wire 32 "f io_readData2 $end
     $var wire 32 "g _GEN_8 $end
     $var wire 1 "s io_controlSignals_regWrite $end
     $var wire 32 #" _GEN_2 $end
     $var wire 3 #$ io_branchType $end
     $var wire 32 #0 _GEN_30 $end
     $var wire 32 #1 _GEN_24 $end
     $var wire 32 #3 _GEN_18 $end
     $var wire 32 #7 _GEN_12 $end
     $var wire 1 #< io_controlSignals_branch $end
     $var wire 32 #= _GEN_27 $end
     $var wire 32 #E _GEN_33 $end
     $var wire 32 #N _GEN_21 $end
     $var wire 32 #T _GEN_15 $end
     $var wire 1 #W io_controlSignalsOut_memWrite $end
     $var wire 1 #i io_controlSignals_memWrite $end
     $var wire 1 #m io_controlSignalsOut_jump $end
     $var wire 1 #z alu $end
     $var wire 32 $" io_readData1 $end
     $var wire 32 $' _GEN_32 $end
     $var wire 32 $8 _GEN_7 $end
     $var wire 32 $9 _GEN_14 $end
     $var wire 32 $? _GEN_29 $end
     $var wire 32 $A io_imm $end
     $var wire 32 $G _GEN_20 $end
     $var wire 32 $P _GEN_17 $end
     $var wire 32 $Q _GEN_1 $end
     $var wire 1 $` io_controlSignalsOut_memRead $end
     $var wire 32 $d _GEN_23 $end
     $var wire 32 $p _GEN_26 $end
     $var wire 32 $v _GEN_11 $end
      $scope module alu $end
       $var wire 32 H io_op1 $end
       $var wire 32 #O io_aluOp $end
       $var wire 63 #R _GEN_0 $end
       $var wire 32 #o io_op2 $end
       $var wire 32 #u io_aluResult $end
      $upscope $end
    $upscope $end
    $scope module IFBarrier $end
     $var wire 32 "T io_instructionOut_instruction $end
     $var wire 32 "` io_PCIn $end
     $var wire 32 #, io_instructionIn_instruction $end
     $var wire 1 #C clock $end
     $var wire 32 $1 io_PCOut $end
     $var wire 1 $h reset $end
     $var wire 32 %" PC $end
    $upscope $end
  $upscope $end
$upscope $end
$enddefinitions $end
$dumpvars
0#D
0"c
0=
b00000000000000000000000000000000 #h
0#c
b00000000000000000000000000000000 "j
b00000000000000000000000000000000 "U
b00000000000000000000000000000000 r
0$D
0"P
b00000000000000000000000000000000 "8
b00000000000000000000000000000000 #.
b00000000000000000000000000000000 "#
1$o
0#t
0m
0#W
b00000000000000000000000000000000 "I
b00000000000000000000000000000000 #*
b00000000000000000000000000000000 Q
0"v
0"r
0$4
0#S
b00000000000000000000000000000000 b
0L
0"@
b00000000000000000000000000000000 $m
0D
b00000000000000000000000000000000 #o
0/
b00000000000000000000000000000000 $;
b00000000000000000000000000000000 $P
0a
b00000000000000000000000000000000 #=
b00000000000000000000000000000000 w
0"n
b00000000000000000000000000000000 s
0]
b00000000000000000000000000000000 $i
0"Q
b00000000000000000000000000000000 A
0+
b00000000000000000000000000000000 "u
b00000000000000000000000000000000 $7
b00000000000000000000000000000000 #V
b00000000000000000000000000000000 "X
b00000000000000000000000000000000 "C
b00000000000000000000000000000000 "&
0$`
0#w
0$C
b000 #$
b00000000000000000000000000000000 q
0"d
b00000000000000000000000000000000 $|
b000000000000 $B
b00000000000000000000000000000000 ?
b00000000000000000000000000000000 $J
0$q
0$T
0"K
b00000000000000000000000000000000 e
b00000000000000000000000000000000 P
0:
b00000000000000000000000000000000 3
b00000000000000000000000000000000 "g
b00000000000000000000000000000000 "5
b000 $x
b00000000000000000000000000000000 $l
0"*
b00000000000000000000000000000000 $%
b00000000000000000000000000000000 "1
1#6
0$c
0#m
b000 6
0#P
0"o
b00000 "G
b00000000000000000000000000000000 _
b00000000000000000000000000000000 $8
0$_
b00000000000000000000000000000000 $G
0#a
0$-
b00000000000000000000000000000000 #4
b00000000000000000000000000000000 p
0#L
0"k
b00000000000000000000000000000000 "6
b00000000000000000000000000000000 S
b00000000000000000000000000000000 >
0%#
b00000000000000000000000000000000 $f
b0000 #r
b0000 "|
0k
0"_
b00000000000000000000000000000000 $Z
0"-
b00000000000000000000000000000000 #y
b00000000000000000000000000000000 2
0#_
0%!
b00000000000000000000000000000000 "f
0$@
b000000000000 C
0|
0$n
b00000000000000000000000000000000 #u
b00000 #e
b00000000000000000000000000000000 $V
b00000 B
b00000000000000000000000000000000 $9
b00000000000000000000000000000000 $$
0-
0"]
b00000 "J
b00000000000000000000000000000000 "E
b00000000000000000000000000000000 M
0"+
b00000000000000000000000000000000 "(
b00000000000000000000000000000000 #?
b00000000000000000000000000000000 "^
b00000 "F
b00000000000000000000000000000000 #"
b00000000000000000000000000000000 ^
b00000000000000000000000000000000 ,
b00000000000000000000000000000000 o
0Y
0"M
1"=
0<
0'
b00000000000000000000000000000000 #g
b00000000000000000000000000000000 $H
b00000000000000000000000000000000 "i
b00000000000000000000000000000000 "T
b00000000000000000000000000000000 "?
0#\
b00000000000000000000000000000000 $v
b00000000000000000000000000000000 $a
b000000000000 $<
b00000000000000000000000000000000 N
0$\
b00000000000000000000000000000000 $Y
0#
b00000000000000000000000000000000 #x
b00000000000000000000000000000000 #N
b00000000000000000000000000000000 $'
b00000000000000000000000000000000 #1
0",
08
b00000000000000000000000000000000 "3
0#Z
0"y
0$3
0"\
b00000000000000000000000000000000 $t
0"q
0#(
0$~
0#k
0$L
0y
0"m
0#9
b00000 #&
0\
b00000 $X
b00000000000000000000000000000000 H
b000000000000 #M
0$/
0*
b00000000000000000000000000000000 z
b00000000000000000000000000000000 $!
b00000000000000000000000000000000 @
b00000000000000000000000000000000 ##
b000000000000000000000000000000000000000000000000000000000000000 #R
b000000000000 f
b0000 #|
b00000000000000000000000000000000 n
0X
19
0"7
b00000000000000000000000000000000 #n
0""
0&
b00000000000000000000000000000000 $d
0#-
0#z
0$[
0#]
0$)
0#H
b00000000000000000000000000000000 l
b00000000000000000000000000000000 #E
b00000000000000000000000000000000 $&
b000000000000 "{
b00000000000000000000000000000000 O
0V
b00000000000000000000000000000000 $E
b00000000000000000000000000000000 "2
0$W
0#v
0$O
0#Y
b00000000000000000000000000000000 #A
b00000000000000000000000000000000 "`
0"x
b00000000000000000000000000000000 $s
b00000 "H
0g
b00000000000000000000000000000000 $"
b00000000000000000000000000000000 K
b00000000000000000000000000000000 h
b00000000000000000000000000000000 %"
05
0#<
b00000000000000000000000000000000 ".
b00000000000000000000000000000000 }
b00000000000000000000000000000000 $A
b0000 $}
0x
0[
0$j
b00000000000000000000000000000000 $g
b00000000000000000000000000000000 $R
0F
0#l
0$M
b00000000000000000000000000000000 #T
0${
0W
b00000000000000000000000000000000 ;
0#}
b00000000000000000000000000000000 $1
b00000 #@
0$I
0$,
b00000000000000000000000000000000 #3
b00000 $6
b00000000000000000000000000000000 Z
0#K
b00000 "%
b0000 "!
0$^
0!
0#d
0$(
b00000000000000000000000000000000 #/
b00000000000000000000000000000000 "9
0#G
b00000000000000000000000000000000 "N
b0000 $
0"4
0"w
0#X
0{
0"Z
0#;
b00000000000000000000000000000000 $U
b00000000000000000000000000000000 "~
b00000000000000000000000000000000 $#
b00000000000000000000000000000000 "L
b00000000000000000000000000000000 #%
b00000000000000000000000000000000 "/
0#i
b000 $r
0"V
1"[
0E
b00000 #`
00
b00000000000000000000000000000000 $Q
b00000000000000000000000000000000 "z
0(
0"$
b00000000000000000000000000000000 #[
b00000000000000000000000000000000 )
b00000000000000000000000000000000 #p
b00000000000000000000000000000000 #!
0$z
b00000 $5
0#J
0#5
0$+
b00000000000000000000000000000000 "'
1$0
b00000000000000000000000000000000 "<
b000000000000 `
b000 $b
b000 #2
b00000 "R
0#F
b00000000000000000000000000000000 j
b00000000000000000000000000000000 U
0i
0T
b00000000000000000000000000000000 $u
0#)
b00000000000000000000000000000000 #b
b00000000000000000000000000000000 "l
b00000000000000000000000000000000 $.
1J
0"e
b00000000000000000000000000000000 #0
b00000000000000000000000000000000 ":
b00000000000000000000000000000000 "O
b00000000000000000000000000000000 $y
0"a
b00000000000000000000000000000000 #{
0"D
b00000000000000000000000000000000 I
b00000000000000000000000000000000 4
b00000000000000000000000000000000 $?
b00000000000000000000000000000000 #I
b00000000000000000000000000000000 "h
b00000000000000000000000000000000 #^
b00000000000000000000000000000000 "}
b00000000000000000000000000000000 #,
0$h
0$S
0#j
0"t
0#U
0$K
0c
0#8
0"W
b00000 #B
0"B
b00000000000000000000000000000000 G
b00000000000000000000000000000000 $=
b00000000000000000000000000000000 d
b000 7
0#f
0$2
b00000 #>
b00000000000000000000000000000000 u
0$*
0#Q
b00000000000000000000000000000000 ";
0">
b00000000000000000000000000000000 $k
b00000000000000000000000000000000 $N
0t
0"p
b000000000000 ~
0$w
b00000000000000000000000000000000 #~
b00000000000000000000000000000000 "
b00000000000000000000000000000000 #7
b00000000000000000000000000000000 $p
b00000000000000000000000000000000 $>
0#C
b00000000000000000000000000000000 #+
0"b
b00000000000000000000000000000000 R
b00000000000000000000000000000000 $]
0"0
b00000 #s
0#q
0.
b000000000000 "S
b00000000000000000000000000000000 $:
0"s
b00000000000000000000000000000000 #'
0"A
b00000000000000000000000000000000 ")
b00000000000000000000000000000000 1
0$F
0$e
b00000000000000000000000000000000 %
b00000000000000000000000000000000 #O
b00000000000000000000000000000000 #:
b00000000000000000000000000000000 "Y
b00000000000000000000000000000000 v
$end
#0
1$h
1"@
1$O
b1111 #r
1k
b00000000000000000000000000000100 $%
1#S
b00000000000000000000000000000100 #"
1#q
b00000000000000000000000000000100 $y
b1111 #|
b00000000000000000000000000000100 $Q
1${
b1111 $
b00000000000000000000000000000100 ^
#1
1$e
1$n
1#
1"V
1$C
1D
1"A
1#8
1#J
1#F
1$2
1"a
1#X
1",
1#;
1g
1E
1%#
1#C
#6
0$2
0%#
0#F
0E
0D
0#C
0",
0#;
0$e
0g
0"a
0#8
0"V
0#
0"A
0$n
0$C
0#J
0#X
#11
1$e
1$n
1#
1"V
1$C
1D
1"A
1#8
1#J
1#F
1$2
1"a
1#X
1",
1#;
1g
1E
1%#
1#C
#16
0$2
0%#
0#F
0E
0D
0#C
0",
0#;
0$e
0g
0"a
0#8
0"V
0#
0"A
0$n
0$C
0#J
0#X
#21
1$e
1$n
1#
1"V
1$C
1D
1"A
1#8
1#J
1#F
1$2
1"a
1#X
1",
1#;
1g
1E
1%#
1#C
#26
0$2
0%#
0#F
0E
0D
0#C
0",
0#;
0$e
0g
0"a
0#8
0"V
0#
0"A
0$n
0$C
0#J
0#X
#31
1$e
1$n
1#
1"V
1$C
1D
1"A
1#8
1#J
1#F
1$2
1"a
1#X
1",
1#;
1g
1E
1%#
1#C
#36
0$2
0%#
0#F
0E
0D
0#C
0",
0#;
0$e
0g
0"a
0#8
0"V
0#
0"A
0$n
0$C
0#J
0#X
#41
1$e
1$n
1#
1"V
1$C
1D
1"A
1#8
1#J
1#F
1$2
1"a
1#X
1",
1#;
1g
1E
1%#
1#C
#46
0${
1(
b00000000000000000000000000010011 ".
1"W
0#q
b00000000000000000000000000010011 #{
1#f
1"M
0"V
0$C
b00000000000000000000000000010011 N
0$O
b00000000000000000000000000010011 #,
0k
0"@
b00000000000000000000000000010011 #!
1$~
0",
1"o
b0000 $
0"a
1#5
0#8
b0000 #r
0$n
0#J
1"x
b00000000000000000000000000010011 s
1$q
1#H
0$2
0%#
0E
1$I
0#C
0$e
b00000000000000000000000000010011 Z
0#S
b00000000000000000000000000010011 #I
0"A
b00000000000000000000000000010011 #y
b0000 #|
b00000000000000000000000000010011 $Y
b00000000000000000000000000000000 $%
0#F
0D
1#\
0$h
0#;
1#d
b00000000000000000000000000010011 @
0g
b00000000000000000000000000010011 "T
1$L
1$[
0#
15
1$_
1-
0#X
#51
b00000000000000000000000000010011 "z
1{
1#
1"v
1D
1#8
10
1#F
1"a
1"e
b00000000000000000000000000010011 $Z
b00000000000000000000000000010011 #A
1g
1#;
b00000000000000000000000000010011 r
b00000000000000000000000000010011 )
b00000000000000000000000000010011 "5
1"s
1$e
b00000000000000000000000000010011 p
1$n
1"V
1$C
1"c
1t
1"A
1"K
1#J
1$2
1#X
b00000000000000000000000000010011 $!
1",
1"_
1E
1%#
1#C
#56
0$2
0%#
0#F
0E
0D
0#C
0",
0#;
0$e
b00000000000000000000000000000100 ;
b00000000000000000000000000000100 O
0g
0"a
0#8
0"V
0#
0"A
0$n
b00000000000000000000000000000100 #'
0$C
b00000000000000000000000000000100 $&
b000000000100 "S
0#J
b00000000000000000000000000000100 $=
0#X
#61
b00000000000000000000000000010011 #4
b00000000000000000000000000010011 $;
1#
1$W
1"k
b000000000100 #M
1D
1#U
1#8
1#F
1$^
1"a
b000000000100 "{
1g
1#;
b00000000000000000000000000010011 "<
1$,
1$e
b00000000000000000000000000010011 $a
1$n
b00000000000000000000000000010011 "9
1"V
1$C
1"A
1#J
1$2
1#X
b000000000100 `
1",
1E
1%#
1#C
#66
0$2
0%#
0#F
0E
0D
0#C
0",
0#;
0$e
b00000000000000000000000000001000 $=
0g
b00000000000000000000000000001000 ;
b00000000000000000000000000001000 #'
b000000001000 "S
b00000000000000000000000000001000 $&
0"a
b00000000000000000000000000001000 O
0#8
0"V
0#
0"A
0$n
0$C
0#J
0#X
#71
b000000001000 "{
b00000000000000000000000000010011 #~
1#
1"D
1D
1#8
1#F
1[
1"a
b000000001000 `
1g
1#;
b00000000000000000000000000010011 #b
1$e
1$n
1"V
1$C
b000000001000 #M
1"A
1#J
1$2
1#X
1",
1"b
1"]
1E
1%#
1#C
#76
b00000000000000000000000000001100 $=
0$2
0%#
0#F
0E
0D
0#C
0",
0#;
0$e
0g
b00000000000000000000000000001100 $&
b00000000000000000000000000001100 O
b00000000000000000000000000001100 ;
0"a
b00000000000000000000000000001100 #'
0#8
0"V
0#
0"A
0$n
b000000001100 "S
0$C
0#J
0#X
